8

7 7
12
4 4
3 2
0 2
2 3
5 5
1 4
2 5
3 1
1 3
0 0
4 3
5 4
147 147

6 6
12
2 4
3 4
4 2
1 1
4 0
0 0
0 1
0 2
0 4
3 5
1 0
4 1
37 37

8 9
12
4 2
5 7
4 5
0 2
2 2
4 6
2 5
0 4
2 3
4 1
5 6
4 3
53 53

8 7
12
0 3
1 4
3 4
0 2
3 2
5 2
6 2
2 0
2 5
5 3
3 2
0 5
174 174

7 6
11
4 1
1 2
4 2
4 3
5 1
4 4
4 5
1 3
5 3
0 2
2 4
47 47

9 7
12
1 1
5 1
7 0
3 0
2 1
0 1
2 3
7 3
5 0
7 2
6 4
4 0
14 14

7 7
13
0 0
1 5
3 5
1 3
2 3
1 2
5 0
3 2
1 1
5 5
2 0
0 4
3 4
74 74

6 7
10
2 4
3 3
1 1
0 4
0 0
2 5
0 1
3 5
2 2
2 1
169 169
