*** Life<FredkinCell> 9x7 ***

Generation = 0, Population = 9.
-------
-0--0--
----0--
--0-0--
---0---
-------
-----0-
----00-
-------

Generation = 112, Population = 14.
---++--
-+--+--
-----+-
----++-
-------
-+--+--
----+--
--+--+-
---+-+-

*** Life<FredkinCell> 9x7 ***

Generation = 0, Population = 10.
-----0-
----00-
-------
-----0-
-------
-------
00000--
---0---
-------

Generation = 168, Population = 28.
+++1+--
----++-
++1+++-
-----+-
++++++-
-------
-----+-
---+---
++++++-

*** Life<FredkinCell> 6x6 ***

Generation = 0, Population = 9.
---0--
-0-0--
-00-0-
---0--
-0--0-
------

Generation = 117, Population = 12.
-+--+-
-+-+--
+-----
0+----
--+--+
--0+-+

*** Life<FredkinCell> 8x9 ***

Generation = 0, Population = 9.
---------
---------
---------
--00-0---
---------
---------
0000-00--
---------

Generation = 174, Population = 38.
-+------+
++-+++-+-
+++++---+
+--++++-+
-++--+-++
-++-+--++
+-+--+---
++-+-+-+-

*** Life<FredkinCell> 7x8 ***

Generation = 0, Population = 9.
-----00-
-0--0---
---0----
--------
00----0-
-----0--
--------

Generation = 33, Population = 28.
--++--9+
+---7---
53---+3-
-4--0503
86+8+-9-
376-1+--
-7-----7

*** Life<FredkinCell> 7x7 ***

Generation = 0, Population = 10.
-----0-
--0----
---00--
0---0--
-------
-000-0-
-------

Generation = 84, Population = 0.
-------
-------
-------
-------
-------
-------
-------

*** Life<FredkinCell> 9x8 ***

Generation = 0, Population = 9.
------0-
---0--0-
0-------
00------
-----0--
--------
------0-
-----0--
--------

Generation = 156, Population = 38.
-+-+++--
+++-+-+-
+-++---+
+--++++-
---++-++
--++---+
---++--+
+++-+--+
-+-++++-

*** Life<FredkinCell> 6x9 ***

Generation = 0, Population = 12.
0-----0--
---0--0--
---0---0-
0--0---0-
--0-0-0--
---------

Generation = 197, Population = 23.
---+++---
++-+----+
---+--+-+
--+---+++
++-++---+
++--+-+--

*** Life<FredkinCell> 9x7 ***

Generation = 0, Population = 9.
-------
-0--0--
----0--
--0-0--
---0---
-------
-----0-
---0-0-
-------

Generation = 112, Population = 16.
---++--
-+--+--
-----+-
---+-+-
-------
-+--+--
----+--
--++++-
---+-+-
